…
print(car_data_jun_16,width=Inf)

## # A tibble: 54 x 12
##    brand_name   auto_dom auto_imp auto_total comm_dom comm_imp comm_total total_dom total_imp total_total  year month
##    <chr>           <dbl>    <dbl>      <dbl>    <dbl>    <dbl>      <dbl>     <dbl>     <dbl>       <dbl> <dbl> <dbl>
##  1 ASTON MARTIN        0        3          3        0        0          0         0         3           3  2016     6
##  2 AUDI                0     1961       1961        0        0          0         0      1961        1961  2016     6
##  3 BENTLEY             0        0          0        0        0          0         0         0           0  2016     6
##  4 BMW                 0     2640       2640        0        0          0         0      2640        2640  2016     6
##  5 CHERY               0       25         25        0        0          0         0        25          25  2016     6
##  6 CITROEN             0     1613       1613      131      690        821       131      2303        2434  2016     6
##  7 DACIA               0     3799       3799        0      429        429         0      4228        4228  2016     6
##  8 DS                  0       14         14        0        0          0         0        14          14  2016     6
##  9 FERRARI             0        1          1        0        0          0         0         1           1  2016     6
## 10 FIAT             4730      232       4962     4107      417       4524      8837       649        9486  2016     6
## # ... with 44 more rows
…
